127.0.0.1 - - [20/Feb/2024:13:07:42 +0530] "GET / HTTP/1.1" 404 751
0:0:0:0:0:0:0:1 - - [20/Feb/2024:13:07:43 +0530] "GET /EmpWebApp/Login.html HTTP/1.1" 200 511
0:0:0:0:0:0:0:1 - - [20/Feb/2024:13:07:58 +0530] "GET /EmpWebApp/LoginServlet?emailId=HR&password=HR HTTP/1.1" 200 698
0:0:0:0:0:0:0:1 - - [20/Feb/2024:13:08:02 +0530] "GET /EmpWebApp/GetAllEmployees HTTP/1.1" 200 3655
0:0:0:0:0:0:0:1 - - [20/Feb/2024:13:08:03 +0530] "GET /EmpWebApp/GetAllEmployees HTTP/1.1" 200 3655
0:0:0:0:0:0:0:1 - - [20/Feb/2024:13:08:12 +0530] "GET /EmpWebApp/DeleteEmployee?empId=101 HTTP/1.1" 200 3433
0:0:0:0:0:0:0:1 - - [20/Feb/2024:13:08:15 +0530] "GET /EmpWebApp/GetAllEmployees HTTP/1.1" 200 3433
127.0.0.1 - - [20/Feb/2024:13:11:20 +0530] "GET / HTTP/1.1" 404 751
0:0:0:0:0:0:0:1 - - [20/Feb/2024:13:11:35 +0530] "GET /EmpWebApp/LoginServlet?emailId=HR&password=HR HTTP/1.1" 200 698
0:0:0:0:0:0:0:1 - - [20/Feb/2024:13:11:38 +0530] "GET /EmpWebApp/GetAllEmployees HTTP/1.1" 200 3841
0:0:0:0:0:0:0:1 - - [20/Feb/2024:13:11:38 +0530] "GET /EmpWebApp/GetAllEmployees HTTP/1.1" 200 3841
0:0:0:0:0:0:0:1 - - [20/Feb/2024:13:11:40 +0530] "GET /EmpWebApp/EditEmployee?empId=102 HTTP/1.1" 200 2019
0:0:0:0:0:0:0:1 - - [20/Feb/2024:13:11:54 +0530] "POST /EmpWebApp/UpdateEmployee HTTP/1.1" 500 1403
0:0:0:0:0:0:0:1 - - [20/Feb/2024:13:12:24 +0530] "GET /EmpWebApp/LoginServlet?emailId=HR&password=HR HTTP/1.1" 200 698
0:0:0:0:0:0:0:1 - - [20/Feb/2024:13:12:27 +0530] "GET /EmpWebApp/GetEmpById.jsp HTTP/1.1" 200 1231
0:0:0:0:0:0:0:1 - - [20/Feb/2024:13:12:31 +0530] "POST /EmpWebApp/GetEmployeeById HTTP/1.1" 200 832
0:0:0:0:0:0:0:1 - - [20/Feb/2024:13:12:34 +0530] "GET /EmpWebApp/GetAllEmployees HTTP/1.1" 200 3841
0:0:0:0:0:0:0:1 - - [20/Feb/2024:13:12:37 +0530] "GET /EmpWebApp/EditEmployee?empId=103 HTTP/1.1" 200 2024
0:0:0:0:0:0:0:1 - - [20/Feb/2024:13:12:42 +0530] "POST /EmpWebApp/UpdateEmployee HTTP/1.1" 200 3843
0:0:0:0:0:0:0:1 - - [20/Feb/2024:13:12:57 +0530] "GET /EmpWebApp/DeleteEmployee?empId=111 HTTP/1.1" 200 3583
