INDEX VERSION 1.3+C:\FSDSql\sqlfsd60\Adv.java\EmpWebWorkspace\.metadata\.plugins\org.eclipse.wst.jsdt.core\indexes
2711978198.index
2215096172.index
4169863361.index
1080002465.index
2273140771.index
2889170302.index
