INDEX VERSION 1.3+C:\FSDSql\sqlfsd60\Adv.java\Adv.javaworkspace\.metadata\.plugins\org.eclipse.wst.jsdt.core\indexes
379696030.index
4290661719.index
4251789083.index
3965033699.index
2581895369.index
242176372.index
